digraph "include/Accessor.hpp"
{
  edge [fontname="Helvetica",fontsize="10",labelfontname="Helvetica",labelfontsize="10"];
  node [fontname="Helvetica",fontsize="10",shape=record];
  Node15 [label="include/Accessor.hpp",height=0.2,width=0.4,color="black", fillcolor="grey75", style="filled", fontcolor="black"];
  Node15 -> Node16 [dir="back",color="midnightblue",fontsize="10",style="solid",fontname="Helvetica"];
  Node16 [label="include/Tensor.hpp",height=0.2,width=0.4,color="black", fillcolor="white", style="filled",URL="$Tensor_8hpp.html"];
  Node16 -> Node17 [dir="back",color="midnightblue",fontsize="10",style="solid",fontname="Helvetica"];
  Node17 [label="include/CyTensor.hpp",height=0.2,width=0.4,color="black", fillcolor="white", style="filled",URL="$CyTensor_8hpp.html"];
  Node17 -> Node18 [dir="back",color="midnightblue",fontsize="10",style="solid",fontname="Helvetica"];
  Node18 [label="include/contraction\l_tree.hpp",height=0.2,width=0.4,color="black", fillcolor="white", style="filled",URL="$contraction__tree_8hpp.html"];
  Node18 -> Node19 [dir="back",color="midnightblue",fontsize="10",style="solid",fontname="Helvetica"];
  Node19 [label="include/Network.hpp",height=0.2,width=0.4,color="black", fillcolor="white", style="filled",URL="$Network_8hpp.html"];
  Node19 -> Node20 [dir="back",color="midnightblue",fontsize="10",style="solid",fontname="Helvetica"];
  Node20 [label="include/cytnx.hpp",height=0.2,width=0.4,color="black", fillcolor="white", style="filled",URL="$cytnx_8hpp.html"];
  Node19 -> Node19 [dir="back",color="midnightblue",fontsize="10",style="solid",fontname="Helvetica"];
  Node19 -> Node21 [dir="back",color="midnightblue",fontsize="10",style="solid",fontname="Helvetica"];
  Node21 [label="src/FermionNetwork.cpp",height=0.2,width=0.4,color="black", fillcolor="white", style="filled",URL="$FermionNetwork_8cpp.html"];
  Node19 -> Node22 [dir="back",color="midnightblue",fontsize="10",style="solid",fontname="Helvetica"];
  Node22 [label="src/Network.cpp",height=0.2,width=0.4,color="black", fillcolor="white", style="filled",URL="$Network_8cpp.html"];
  Node19 -> Node23 [dir="back",color="midnightblue",fontsize="10",style="solid",fontname="Helvetica"];
  Node23 [label="src/Network_base.cpp",height=0.2,width=0.4,color="black", fillcolor="white", style="filled",URL="$Network__base_8cpp.html"];
  Node19 -> Node24 [dir="back",color="midnightblue",fontsize="10",style="solid",fontname="Helvetica"];
  Node24 [label="src/RegularNetwork.cpp",height=0.2,width=0.4,color="black", fillcolor="white", style="filled",URL="$RegularNetwork_8cpp.html"];
  Node18 -> Node25 [dir="back",color="midnightblue",fontsize="10",style="solid",fontname="Helvetica"];
  Node25 [label="src/contraction_tree.cpp",height=0.2,width=0.4,color="black", fillcolor="white", style="filled",URL="$contraction__tree_8cpp.html"];
  Node17 -> Node26 [dir="back",color="midnightblue",fontsize="10",style="solid",fontname="Helvetica"];
  Node26 [label="include/linalg.hpp",height=0.2,width=0.4,color="black", fillcolor="white", style="filled",URL="$linalg_8hpp.html"];
  Node26 -> Node20 [dir="back",color="midnightblue",fontsize="10",style="solid",fontname="Helvetica"];
  Node26 -> Node27 [dir="back",color="midnightblue",fontsize="10",style="solid",fontname="Helvetica"];
  Node27 [label="src/CyTensor.cpp",height=0.2,width=0.4,color="black", fillcolor="white", style="filled",URL="$CyTensor_8cpp.html"];
  Node26 -> Node28 [dir="back",color="midnightblue",fontsize="10",style="solid",fontname="Helvetica"];
  Node28 [label="src/CyTensor_base.cpp",height=0.2,width=0.4,color="black", fillcolor="white", style="filled",URL="$CyTensor__base_8cpp.html"];
  Node26 -> Node29 [dir="back",color="midnightblue",fontsize="10",style="solid",fontname="Helvetica"];
  Node29 [label="src/DenseCyTensor.cpp",height=0.2,width=0.4,color="black", fillcolor="white", style="filled",URL="$DenseCyTensor_8cpp.html"];
  Node26 -> Node22 [dir="back",color="midnightblue",fontsize="10",style="solid",fontname="Helvetica"];
  Node26 -> Node23 [dir="back",color="midnightblue",fontsize="10",style="solid",fontname="Helvetica"];
  Node26 -> Node30 [dir="back",color="midnightblue",fontsize="10",style="solid",fontname="Helvetica"];
  Node30 [label="src/SparseCyTensor.cpp",height=0.2,width=0.4,color="black", fillcolor="white", style="filled",URL="$SparseCyTensor_8cpp.html"];
  Node26 -> Node31 [dir="back",color="midnightblue",fontsize="10",style="solid",fontname="Helvetica"];
  Node31 [label="src/Tensor.cpp",height=0.2,width=0.4,color="black", fillcolor="white", style="filled",URL="$Tensor_8cpp.html"];
  Node17 -> Node20 [dir="back",color="midnightblue",fontsize="10",style="solid",fontname="Helvetica"];
  Node17 -> Node19 [dir="back",color="midnightblue",fontsize="10",style="solid",fontname="Helvetica"];
  Node17 -> Node27 [dir="back",color="midnightblue",fontsize="10",style="solid",fontname="Helvetica"];
  Node17 -> Node28 [dir="back",color="midnightblue",fontsize="10",style="solid",fontname="Helvetica"];
  Node17 -> Node29 [dir="back",color="midnightblue",fontsize="10",style="solid",fontname="Helvetica"];
  Node17 -> Node30 [dir="back",color="midnightblue",fontsize="10",style="solid",fontname="Helvetica"];
  Node16 -> Node20 [dir="back",color="midnightblue",fontsize="10",style="solid",fontname="Helvetica"];
  Node16 -> Node32 [dir="back",color="midnightblue",fontsize="10",style="solid",fontname="Helvetica"];
  Node32 [label="include/Generator.hpp",height=0.2,width=0.4,color="black", fillcolor="white", style="filled",URL="$Generator_8hpp.html"];
  Node32 -> Node20 [dir="back",color="midnightblue",fontsize="10",style="solid",fontname="Helvetica"];
  Node32 -> Node29 [dir="back",color="midnightblue",fontsize="10",style="solid",fontname="Helvetica"];
  Node32 -> Node33 [dir="back",color="midnightblue",fontsize="10",style="solid",fontname="Helvetica"];
  Node33 [label="src/Generator.cpp",height=0.2,width=0.4,color="black", fillcolor="white", style="filled",URL="$Generator_8cpp.html"];
  Node32 -> Node30 [dir="back",color="midnightblue",fontsize="10",style="solid",fontname="Helvetica"];
  Node16 -> Node26 [dir="back",color="midnightblue",fontsize="10",style="solid",fontname="Helvetica"];
  Node16 -> Node28 [dir="back",color="midnightblue",fontsize="10",style="solid",fontname="Helvetica"];
  Node16 -> Node31 [dir="back",color="midnightblue",fontsize="10",style="solid",fontname="Helvetica"];
  Node15 -> Node20 [dir="back",color="midnightblue",fontsize="10",style="solid",fontname="Helvetica"];
  Node15 -> Node34 [dir="back",color="midnightblue",fontsize="10",style="solid",fontname="Helvetica"];
  Node34 [label="src/Accessor.cpp",height=0.2,width=0.4,color="black", fillcolor="white", style="filled",URL="$Accessor_8cpp.html"];
  Node15 -> Node30 [dir="back",color="midnightblue",fontsize="10",style="solid",fontname="Helvetica"];
}
