digraph "include/Bond.hpp"
{
  edge [fontname="Helvetica",fontsize="10",labelfontname="Helvetica",labelfontsize="10"];
  node [fontname="Helvetica",fontsize="10",shape=record];
  Node25 [label="include/Bond.hpp",height=0.2,width=0.4,color="black", fillcolor="grey75", style="filled", fontcolor="black"];
  Node25 -> Node26 [dir="back",color="midnightblue",fontsize="10",style="solid",fontname="Helvetica"];
  Node26 [label="include/CyTensor.hpp",height=0.2,width=0.4,color="black", fillcolor="white", style="filled",URL="$CyTensor_8hpp.html"];
  Node26 -> Node27 [dir="back",color="midnightblue",fontsize="10",style="solid",fontname="Helvetica"];
  Node27 [label="include/contraction\l_tree.hpp",height=0.2,width=0.4,color="black", fillcolor="white", style="filled",URL="$contraction__tree_8hpp.html"];
  Node27 -> Node28 [dir="back",color="midnightblue",fontsize="10",style="solid",fontname="Helvetica"];
  Node28 [label="include/Network.hpp",height=0.2,width=0.4,color="black", fillcolor="white", style="filled",URL="$Network_8hpp.html"];
  Node28 -> Node29 [dir="back",color="midnightblue",fontsize="10",style="solid",fontname="Helvetica"];
  Node29 [label="include/cytnx.hpp",height=0.2,width=0.4,color="black", fillcolor="white", style="filled",URL="$cytnx_8hpp.html"];
  Node28 -> Node28 [dir="back",color="midnightblue",fontsize="10",style="solid",fontname="Helvetica"];
  Node28 -> Node30 [dir="back",color="midnightblue",fontsize="10",style="solid",fontname="Helvetica"];
  Node30 [label="src/FermionNetwork.cpp",height=0.2,width=0.4,color="black", fillcolor="white", style="filled",URL="$FermionNetwork_8cpp.html"];
  Node28 -> Node31 [dir="back",color="midnightblue",fontsize="10",style="solid",fontname="Helvetica"];
  Node31 [label="src/Network.cpp",height=0.2,width=0.4,color="black", fillcolor="white", style="filled",URL="$Network_8cpp.html"];
  Node28 -> Node32 [dir="back",color="midnightblue",fontsize="10",style="solid",fontname="Helvetica"];
  Node32 [label="src/Network_base.cpp",height=0.2,width=0.4,color="black", fillcolor="white", style="filled",URL="$Network__base_8cpp.html"];
  Node28 -> Node33 [dir="back",color="midnightblue",fontsize="10",style="solid",fontname="Helvetica"];
  Node33 [label="src/RegularNetwork.cpp",height=0.2,width=0.4,color="black", fillcolor="white", style="filled",URL="$RegularNetwork_8cpp.html"];
  Node27 -> Node34 [dir="back",color="midnightblue",fontsize="10",style="solid",fontname="Helvetica"];
  Node34 [label="src/contraction_tree.cpp",height=0.2,width=0.4,color="black", fillcolor="white", style="filled",URL="$contraction__tree_8cpp.html"];
  Node26 -> Node35 [dir="back",color="midnightblue",fontsize="10",style="solid",fontname="Helvetica"];
  Node35 [label="include/linalg.hpp",height=0.2,width=0.4,color="black", fillcolor="white", style="filled",URL="$linalg_8hpp.html"];
  Node35 -> Node29 [dir="back",color="midnightblue",fontsize="10",style="solid",fontname="Helvetica"];
  Node35 -> Node36 [dir="back",color="midnightblue",fontsize="10",style="solid",fontname="Helvetica"];
  Node36 [label="src/CyTensor.cpp",height=0.2,width=0.4,color="black", fillcolor="white", style="filled",URL="$CyTensor_8cpp.html"];
  Node35 -> Node37 [dir="back",color="midnightblue",fontsize="10",style="solid",fontname="Helvetica"];
  Node37 [label="src/CyTensor_base.cpp",height=0.2,width=0.4,color="black", fillcolor="white", style="filled",URL="$CyTensor__base_8cpp.html"];
  Node35 -> Node38 [dir="back",color="midnightblue",fontsize="10",style="solid",fontname="Helvetica"];
  Node38 [label="src/DenseCyTensor.cpp",height=0.2,width=0.4,color="black", fillcolor="white", style="filled",URL="$DenseCyTensor_8cpp.html"];
  Node35 -> Node31 [dir="back",color="midnightblue",fontsize="10",style="solid",fontname="Helvetica"];
  Node35 -> Node32 [dir="back",color="midnightblue",fontsize="10",style="solid",fontname="Helvetica"];
  Node35 -> Node39 [dir="back",color="midnightblue",fontsize="10",style="solid",fontname="Helvetica"];
  Node39 [label="src/SparseCyTensor.cpp",height=0.2,width=0.4,color="black", fillcolor="white", style="filled",URL="$SparseCyTensor_8cpp.html"];
  Node35 -> Node40 [dir="back",color="midnightblue",fontsize="10",style="solid",fontname="Helvetica"];
  Node40 [label="src/Tensor.cpp",height=0.2,width=0.4,color="black", fillcolor="white", style="filled",URL="$Tensor_8cpp.html"];
  Node26 -> Node29 [dir="back",color="midnightblue",fontsize="10",style="solid",fontname="Helvetica"];
  Node26 -> Node28 [dir="back",color="midnightblue",fontsize="10",style="solid",fontname="Helvetica"];
  Node26 -> Node36 [dir="back",color="midnightblue",fontsize="10",style="solid",fontname="Helvetica"];
  Node26 -> Node37 [dir="back",color="midnightblue",fontsize="10",style="solid",fontname="Helvetica"];
  Node26 -> Node38 [dir="back",color="midnightblue",fontsize="10",style="solid",fontname="Helvetica"];
  Node26 -> Node39 [dir="back",color="midnightblue",fontsize="10",style="solid",fontname="Helvetica"];
  Node25 -> Node29 [dir="back",color="midnightblue",fontsize="10",style="solid",fontname="Helvetica"];
  Node25 -> Node41 [dir="back",color="midnightblue",fontsize="10",style="solid",fontname="Helvetica"];
  Node41 [label="src/Bond.cpp",height=0.2,width=0.4,color="black", fillcolor="white", style="filled",URL="$Bond_8cpp.html"];
}
