digraph "src/CyTensor.cpp"
{
  edge [fontname="Helvetica",fontsize="10",labelfontname="Helvetica",labelfontsize="10"];
  node [fontname="Helvetica",fontsize="10",shape=record];
  Node0 [label="src/CyTensor.cpp",height=0.2,width=0.4,color="black", fillcolor="grey75", style="filled", fontcolor="black"];
  Node0 -> Node1 [color="midnightblue",fontsize="10",style="solid",fontname="Helvetica"];
  Node1 [label="typeinfo",height=0.2,width=0.4,color="grey75", fillcolor="white", style="filled"];
  Node0 -> Node2 [color="midnightblue",fontsize="10",style="solid",fontname="Helvetica"];
  Node2 [label="CyTensor.hpp",height=0.2,width=0.4,color="black", fillcolor="white", style="filled",URL="$CyTensor_8hpp.html"];
  Node2 -> Node3 [color="midnightblue",fontsize="10",style="solid",fontname="Helvetica"];
  Node3 [label="Type.hpp",height=0.2,width=0.4,color="black", fillcolor="white", style="filled",URL="$Type_8hpp.html"];
  Node3 -> Node4 [color="midnightblue",fontsize="10",style="solid",fontname="Helvetica"];
  Node4 [label="string",height=0.2,width=0.4,color="grey75", fillcolor="white", style="filled"];
  Node3 -> Node5 [color="midnightblue",fontsize="10",style="solid",fontname="Helvetica"];
  Node5 [label="complex",height=0.2,width=0.4,color="grey75", fillcolor="white", style="filled"];
  Node3 -> Node6 [color="midnightblue",fontsize="10",style="solid",fontname="Helvetica"];
  Node6 [label="stdint.h",height=0.2,width=0.4,color="grey75", fillcolor="white", style="filled"];
  Node3 -> Node7 [color="midnightblue",fontsize="10",style="solid",fontname="Helvetica"];
  Node7 [label="climits",height=0.2,width=0.4,color="grey75", fillcolor="white", style="filled"];
  Node3 -> Node1 [color="midnightblue",fontsize="10",style="solid",fontname="Helvetica"];
  Node2 -> Node8 [color="midnightblue",fontsize="10",style="solid",fontname="Helvetica"];
  Node8 [label="cytnx_error.hpp",height=0.2,width=0.4,color="black", fillcolor="white", style="filled",URL="$cytnx__error_8hpp.html"];
  Node8 -> Node9 [color="midnightblue",fontsize="10",style="solid",fontname="Helvetica"];
  Node9 [label="cstdio",height=0.2,width=0.4,color="grey75", fillcolor="white", style="filled"];
  Node8 -> Node10 [color="midnightblue",fontsize="10",style="solid",fontname="Helvetica"];
  Node10 [label="cstdlib",height=0.2,width=0.4,color="grey75", fillcolor="white", style="filled"];
  Node8 -> Node11 [color="midnightblue",fontsize="10",style="solid",fontname="Helvetica"];
  Node11 [label="cstring",height=0.2,width=0.4,color="grey75", fillcolor="white", style="filled"];
  Node8 -> Node12 [color="midnightblue",fontsize="10",style="solid",fontname="Helvetica"];
  Node12 [label="stdarg.h",height=0.2,width=0.4,color="grey75", fillcolor="white", style="filled"];
  Node8 -> Node13 [color="midnightblue",fontsize="10",style="solid",fontname="Helvetica"];
  Node13 [label="iostream",height=0.2,width=0.4,color="grey75", fillcolor="white", style="filled"];
  Node8 -> Node14 [color="midnightblue",fontsize="10",style="solid",fontname="Helvetica"];
  Node14 [label="stdexcept",height=0.2,width=0.4,color="grey75", fillcolor="white", style="filled"];
  Node2 -> Node15 [color="midnightblue",fontsize="10",style="solid",fontname="Helvetica"];
  Node15 [label="Storage.hpp",height=0.2,width=0.4,color="black", fillcolor="white", style="filled",URL="$Storage_8hpp.html"];
  Node15 -> Node13 [color="midnightblue",fontsize="10",style="solid",fontname="Helvetica"];
  Node15 -> Node16 [color="midnightblue",fontsize="10",style="solid",fontname="Helvetica"];
  Node16 [label="fstream",height=0.2,width=0.4,color="grey75", fillcolor="white", style="filled"];
  Node15 -> Node10 [color="midnightblue",fontsize="10",style="solid",fontname="Helvetica"];
  Node15 -> Node9 [color="midnightblue",fontsize="10",style="solid",fontname="Helvetica"];
  Node15 -> Node11 [color="midnightblue",fontsize="10",style="solid",fontname="Helvetica"];
  Node15 -> Node17 [color="midnightblue",fontsize="10",style="solid",fontname="Helvetica"];
  Node17 [label="initializer_list",height=0.2,width=0.4,color="grey75", fillcolor="white", style="filled"];
  Node15 -> Node1 [color="midnightblue",fontsize="10",style="solid",fontname="Helvetica"];
  Node15 -> Node18 [color="midnightblue",fontsize="10",style="solid",fontname="Helvetica"];
  Node18 [label="vector",height=0.2,width=0.4,color="grey75", fillcolor="white", style="filled"];
  Node15 -> Node5 [color="midnightblue",fontsize="10",style="solid",fontname="Helvetica"];
  Node15 -> Node3 [color="midnightblue",fontsize="10",style="solid",fontname="Helvetica"];
  Node15 -> Node19 [color="midnightblue",fontsize="10",style="solid",fontname="Helvetica"];
  Node19 [label="Device.hpp",height=0.2,width=0.4,color="black", fillcolor="white", style="filled",URL="$Device_8hpp.html"];
  Node19 -> Node18 [color="midnightblue",fontsize="10",style="solid",fontname="Helvetica"];
  Node19 -> Node4 [color="midnightblue",fontsize="10",style="solid",fontname="Helvetica"];
  Node15 -> Node20 [color="midnightblue",fontsize="10",style="solid",fontname="Helvetica"];
  Node20 [label="intrusive_ptr_base.hpp",height=0.2,width=0.4,color="black", fillcolor="white", style="filled",URL="$intrusive__ptr__base_8hpp.html"];
  Node20 -> Node21 [color="midnightblue",fontsize="10",style="solid",fontname="Helvetica"];
  Node21 [label="ostream",height=0.2,width=0.4,color="grey75", fillcolor="white", style="filled"];
  Node20 -> Node22 [color="midnightblue",fontsize="10",style="solid",fontname="Helvetica"];
  Node22 [label="cassert",height=0.2,width=0.4,color="grey75", fillcolor="white", style="filled"];
  Node20 -> Node23 [color="midnightblue",fontsize="10",style="solid",fontname="Helvetica"];
  Node23 [label="boost/smart_ptr/intrusive\l_ptr.hpp",height=0.2,width=0.4,color="grey75", fillcolor="white", style="filled"];
  Node20 -> Node24 [color="midnightblue",fontsize="10",style="solid",fontname="Helvetica"];
  Node24 [label="boost/checked_delete.hpp",height=0.2,width=0.4,color="grey75", fillcolor="white", style="filled"];
  Node20 -> Node25 [color="midnightblue",fontsize="10",style="solid",fontname="Helvetica"];
  Node25 [label="boost/detail/atomic\l_count.hpp",height=0.2,width=0.4,color="grey75", fillcolor="white", style="filled"];
  Node15 -> Node8 [color="midnightblue",fontsize="10",style="solid",fontname="Helvetica"];
  Node2 -> Node19 [color="midnightblue",fontsize="10",style="solid",fontname="Helvetica"];
  Node2 -> Node26 [color="midnightblue",fontsize="10",style="solid",fontname="Helvetica"];
  Node26 [label="Tensor.hpp",height=0.2,width=0.4,color="black", fillcolor="white", style="filled",URL="$Tensor_8hpp.html"];
  Node26 -> Node3 [color="midnightblue",fontsize="10",style="solid",fontname="Helvetica"];
  Node26 -> Node8 [color="midnightblue",fontsize="10",style="solid",fontname="Helvetica"];
  Node26 -> Node15 [color="midnightblue",fontsize="10",style="solid",fontname="Helvetica"];
  Node26 -> Node19 [color="midnightblue",fontsize="10",style="solid",fontname="Helvetica"];
  Node26 -> Node20 [color="midnightblue",fontsize="10",style="solid",fontname="Helvetica"];
  Node26 -> Node13 [color="midnightblue",fontsize="10",style="solid",fontname="Helvetica"];
  Node26 -> Node16 [color="midnightblue",fontsize="10",style="solid",fontname="Helvetica"];
  Node26 -> Node27 [color="midnightblue",fontsize="10",style="solid",fontname="Helvetica"];
  Node27 [label="utils/vec_range.hpp",height=0.2,width=0.4,color="grey75", fillcolor="white", style="filled"];
  Node26 -> Node28 [color="midnightblue",fontsize="10",style="solid",fontname="Helvetica"];
  Node28 [label="Accessor.hpp",height=0.2,width=0.4,color="black", fillcolor="white", style="filled",URL="$Accessor_8hpp.html"];
  Node28 -> Node3 [color="midnightblue",fontsize="10",style="solid",fontname="Helvetica"];
  Node28 -> Node8 [color="midnightblue",fontsize="10",style="solid",fontname="Helvetica"];
  Node28 -> Node18 [color="midnightblue",fontsize="10",style="solid",fontname="Helvetica"];
  Node28 -> Node11 [color="midnightblue",fontsize="10",style="solid",fontname="Helvetica"];
  Node28 -> Node4 [color="midnightblue",fontsize="10",style="solid",fontname="Helvetica"];
  Node26 -> Node18 [color="midnightblue",fontsize="10",style="solid",fontname="Helvetica"];
  Node26 -> Node17 [color="midnightblue",fontsize="10",style="solid",fontname="Helvetica"];
  Node2 -> Node20 [color="midnightblue",fontsize="10",style="solid",fontname="Helvetica"];
  Node2 -> Node29 [color="midnightblue",fontsize="10",style="solid",fontname="Helvetica"];
  Node29 [label="utils/utils.hpp",height=0.2,width=0.4,color="black", fillcolor="white", style="filled",URL="$utils_8hpp.html"];
  Node29 -> Node30 [color="midnightblue",fontsize="10",style="solid",fontname="Helvetica"];
  Node30 [label="is.hpp",height=0.2,width=0.4,color="grey75", fillcolor="white", style="filled"];
  Node29 -> Node31 [color="midnightblue",fontsize="10",style="solid",fontname="Helvetica"];
  Node31 [label="cartesian.hpp",height=0.2,width=0.4,color="grey75", fillcolor="white", style="filled"];
  Node29 -> Node32 [color="midnightblue",fontsize="10",style="solid",fontname="Helvetica"];
  Node32 [label="vec_clone.hpp",height=0.2,width=0.4,color="grey75", fillcolor="white", style="filled"];
  Node29 -> Node33 [color="midnightblue",fontsize="10",style="solid",fontname="Helvetica"];
  Node33 [label="vec_unique.hpp",height=0.2,width=0.4,color="grey75", fillcolor="white", style="filled"];
  Node29 -> Node34 [color="midnightblue",fontsize="10",style="solid",fontname="Helvetica"];
  Node34 [label="vec_map.hpp",height=0.2,width=0.4,color="grey75", fillcolor="white", style="filled"];
  Node29 -> Node35 [color="midnightblue",fontsize="10",style="solid",fontname="Helvetica"];
  Node35 [label="vec_erase.hpp",height=0.2,width=0.4,color="grey75", fillcolor="white", style="filled"];
  Node29 -> Node36 [color="midnightblue",fontsize="10",style="solid",fontname="Helvetica"];
  Node36 [label="vec_where.hpp",height=0.2,width=0.4,color="grey75", fillcolor="white", style="filled"];
  Node29 -> Node37 [color="midnightblue",fontsize="10",style="solid",fontname="Helvetica"];
  Node37 [label="vec_concatenate.hpp",height=0.2,width=0.4,color="grey75", fillcolor="white", style="filled"];
  Node29 -> Node38 [color="midnightblue",fontsize="10",style="solid",fontname="Helvetica"];
  Node38 [label="vec_intersect.hpp",height=0.2,width=0.4,color="grey75", fillcolor="white", style="filled"];
  Node29 -> Node39 [color="midnightblue",fontsize="10",style="solid",fontname="Helvetica"];
  Node39 [label="vec_range.hpp",height=0.2,width=0.4,color="grey75", fillcolor="white", style="filled"];
  Node29 -> Node40 [color="midnightblue",fontsize="10",style="solid",fontname="Helvetica"];
  Node40 [label="vec2d_col_sort.hpp",height=0.2,width=0.4,color="grey75", fillcolor="white", style="filled"];
  Node29 -> Node41 [color="midnightblue",fontsize="10",style="solid",fontname="Helvetica"];
  Node41 [label="str_utils.hpp",height=0.2,width=0.4,color="grey75", fillcolor="white", style="filled"];
  Node29 -> Node18 [color="midnightblue",fontsize="10",style="solid",fontname="Helvetica"];
  Node29 -> Node13 [color="midnightblue",fontsize="10",style="solid",fontname="Helvetica"];
  Node29 -> Node4 [color="midnightblue",fontsize="10",style="solid",fontname="Helvetica"];
  Node2 -> Node13 [color="midnightblue",fontsize="10",style="solid",fontname="Helvetica"];
  Node2 -> Node18 [color="midnightblue",fontsize="10",style="solid",fontname="Helvetica"];
  Node2 -> Node42 [color="midnightblue",fontsize="10",style="solid",fontname="Helvetica"];
  Node42 [label="map",height=0.2,width=0.4,color="grey75", fillcolor="white", style="filled"];
  Node2 -> Node43 [color="midnightblue",fontsize="10",style="solid",fontname="Helvetica"];
  Node43 [label="utility",height=0.2,width=0.4,color="grey75", fillcolor="white", style="filled"];
  Node2 -> Node17 [color="midnightblue",fontsize="10",style="solid",fontname="Helvetica"];
  Node2 -> Node44 [color="midnightblue",fontsize="10",style="solid",fontname="Helvetica"];
  Node44 [label="algorithm",height=0.2,width=0.4,color="grey75", fillcolor="white", style="filled"];
  Node2 -> Node45 [color="midnightblue",fontsize="10",style="solid",fontname="Helvetica"];
  Node45 [label="Symmetry.hpp",height=0.2,width=0.4,color="black", fillcolor="white", style="filled",URL="$Symmetry_8hpp.html"];
  Node45 -> Node3 [color="midnightblue",fontsize="10",style="solid",fontname="Helvetica"];
  Node45 -> Node8 [color="midnightblue",fontsize="10",style="solid",fontname="Helvetica"];
  Node45 -> Node20 [color="midnightblue",fontsize="10",style="solid",fontname="Helvetica"];
  Node45 -> Node4 [color="midnightblue",fontsize="10",style="solid",fontname="Helvetica"];
  Node45 -> Node9 [color="midnightblue",fontsize="10",style="solid",fontname="Helvetica"];
  Node45 -> Node46 [color="midnightblue",fontsize="10",style="solid",fontname="Helvetica"];
  Node46 [label="utils/vec_clone.hpp",height=0.2,width=0.4,color="grey75", fillcolor="white", style="filled"];
  Node2 -> Node47 [color="midnightblue",fontsize="10",style="solid",fontname="Helvetica"];
  Node47 [label="Bond.hpp",height=0.2,width=0.4,color="red", fillcolor="white", style="filled",URL="$Bond_8hpp.html"];
  Node47 -> Node3 [color="midnightblue",fontsize="10",style="solid",fontname="Helvetica"];
  Node47 -> Node45 [color="midnightblue",fontsize="10",style="solid",fontname="Helvetica"];
  Node47 -> Node18 [color="midnightblue",fontsize="10",style="solid",fontname="Helvetica"];
  Node47 -> Node8 [color="midnightblue",fontsize="10",style="solid",fontname="Helvetica"];
  Node47 -> Node17 [color="midnightblue",fontsize="10",style="solid",fontname="Helvetica"];
  Node47 -> Node20 [color="midnightblue",fontsize="10",style="solid",fontname="Helvetica"];
  Node47 -> Node46 [color="midnightblue",fontsize="10",style="solid",fontname="Helvetica"];
  Node0 -> Node49 [color="midnightblue",fontsize="10",style="solid",fontname="Helvetica"];
  Node49 [label="utils/utils_internal\l_interface.hpp",height=0.2,width=0.4,color="grey75", fillcolor="white", style="filled"];
  Node0 -> Node50 [color="midnightblue",fontsize="10",style="solid",fontname="Helvetica"];
  Node50 [label="linalg.hpp",height=0.2,width=0.4,color="black", fillcolor="white", style="filled",URL="$linalg_8hpp.html"];
  Node50 -> Node3 [color="midnightblue",fontsize="10",style="solid",fontname="Helvetica"];
  Node50 -> Node8 [color="midnightblue",fontsize="10",style="solid",fontname="Helvetica"];
  Node50 -> Node26 [color="midnightblue",fontsize="10",style="solid",fontname="Helvetica"];
  Node50 -> Node15 [color="midnightblue",fontsize="10",style="solid",fontname="Helvetica"];
  Node50 -> Node2 [color="midnightblue",fontsize="10",style="solid",fontname="Helvetica"];
}
